…
## Importing data




```r
library(tidyverse)
nba<-read_csv("historical_RAPTOR_by_player.csv")
nba
```

```
## # A tibble: 17,483 x 15
##    player_name player_id season  poss    mp raptor_offense raptor_defense
##    <chr>       <chr>      <dbl> <dbl> <dbl>          <dbl>          <dbl>
##  1 Alaa Abdel~ abdelal01   1991   640   303          -3.94         -0.510
##  2 Alaa Abdel~ abdelal01   1992  1998   959          -2.55         -0.198
##  3 Alaa Abdel~ abdelal01   1993  2754  1379          -2.37         -2.07 
##  4 Alaa Abdel~ abdelal01   1994   320   159          -6.14         -2.75 
##  5 Alaa Abdel~ abdelal01   1995   984   506          -3.85         -1.27 
##  6 Kareem Abd~ abdulka01   1977  7674  3483           4.54          3.10 
##  7 Kareem Abd~ abdulka01   1978  5343  2399           3.45          3.42 
##  8 Kareem Abd~ abdulka01   1979  7826  3524           2.95          2.53 
##  9 Kareem Abd~ abdulka01   1980  8226  3761           3.12          2.43 
## 10 Kareem Abd~ abdulka01   1981  6716  3110           2.37          1.80 
## # ... with 17,473 more rows, and 8 more variables: raptor_total <dbl>,
## #   war_total <dbl>, war_reg_season <dbl>, war_playoffs <dbl>,
## #   predator_offense <dbl>, predator_defense <dbl>, predator_total <dbl>,
## #   pace_impact <dbl>
```
…
