…
Tubheight <- tempfile()
download("https://github.com/WJC-Data-Science/DTS350/raw/master/Height.xlsx",
         Tubheight, mode = "wb")
Tubheight <- read_xlsx(Tubheight, skip = 2, col_names = TRUE)
Tubheight
```

```
## # A tibble: 306 x 203
##     Code `Continent, Reg~ `1800` `1801` `1802` `1803` `1804` `1805` `1806`
##    <dbl> <chr>            <lgl>  <lgl>  <lgl>  <lgl>  <lgl>  <lgl>  <lgl> 
##  1   150 Europe           NA     NA     NA     NA     NA     NA     NA    
##  2   155 Western Europe   NA     NA     NA     NA     NA     NA     NA    
##  3    40 Austria          NA     NA     NA     NA     NA     NA     NA    
##  4    56 Belgium          NA     NA     NA     NA     NA     NA     NA    
##  5   280 Federal Republi~ NA     NA     NA     NA     NA     NA     NA    
##  6   250 France           NA     NA     NA     NA     NA     NA     NA    
##  7   278 German Democrat~ NA     NA     NA     NA     NA     NA     NA    
##  8   276 Germany          NA     NA     NA     NA     NA     NA     NA    
##  9   438 Liechtenstein    NA     NA     NA     NA     NA     NA     NA    
## 10   442 Luxembourg       NA     NA     NA     NA     NA     NA     NA    
## # ... with 296 more rows, and 194 more variables: `1807` <lgl>, `1808` <lgl>,
## #   `1809` <lgl>, `1810` <dbl>, `1811` <lgl>, `1812` <lgl>, `1813` <lgl>,
## #   `1814` <lgl>, `1815` <lgl>, `1816` <lgl>, `1817` <lgl>, `1818` <lgl>,
## #   `1819` <lgl>, `1820` <dbl>, `1821` <lgl>, `1822` <lgl>, `1823` <lgl>,
## #   `1824` <lgl>, `1825` <lgl>, `1826` <lgl>, `1827` <lgl>, `1828` <lgl>,
## #   `1829` <lgl>, `1830` <dbl>, `1831` <lgl>, `1832` <lgl>, `1833` <lgl>,
## #   `1834` <lgl>, `1835` <lgl>, `1836` <lgl>, `1837` <lgl>, `1838` <lgl>,
## #   `1839` <lgl>, `1840` <dbl>, `1841` <lgl>, `1842` <lgl>, `1843` <lgl>,
## #   `1844` <lgl>, `1845` <lgl>, `1846` <lgl>, `1847` <lgl>, `1848` <lgl>,
…
```r
germanheight <- read_dta("https://github.com/WJC-Data-Science/DTS350/raw/master/germanconscr.dta")
germanheight
```

```
## # A tibble: 1,382 x 5
##    gebger      bdec height   age co   
##    <chr>      <dbl>  <dbl> <dbl> <chr>
##  1 brueckenau  1850   170.    21 de-se
##  2 brueckenau  1850   156.    21 de-se
##  3 brueckenau  1850   172.    21 de-se
##  4 brueckenau  1850   168.    21 de-se
##  5 brueckenau  1850   167.    21 de-se
##  6 brueckenau  1850   160.    21 de-se
##  7 brueckenau  1850   161.    21 de-se
##  8 brueckenau  1850   162.    21 de-se
##  9 brueckenau  1850   162.    21 de-se
## 10 brueckenau  1850   170.    21 de-se
## # ... with 1,372 more rows
```

```r
germanprison <- read_dta("https://github.com/WJC-Data-Science/DTS350/raw/master/germanprison.dta")
germanprison
```

```
## # A tibble: 477 x 4
##      age  bdec co    height
##    <dbl> <dbl> <chr>  <dbl>
##  1    22  1850 de       156
##  2    26  1850 de       168
##  3    26  1850 de       161
##  4    25  1850 de       159
##  5    26  1850 de       175
##  6    24  1850 de       173
##  7    24  1850 de       173
##  8    24  1850 de       172
##  9    24  1850 de       161
## 10    21  1850 de       175
## # ... with 467 more rows
```

```r
heightSE <- tempfile()
download("https://github.com/WJC-Data-Science/DTS350/raw/master/Heights_south-east/B6090.DBF", heightSE, mode = "wb")
heightSE <- read.dbf(heightSE)


heightscsv <- read_csv("https://raw.githubusercontent.com/hadley/r4ds/master/data/heights.csv")
heightscsv
```

```
## # A tibble: 1,192 x 6
##     earn height sex       ed   age race    
##    <dbl>  <dbl> <chr>  <dbl> <dbl> <chr>   
##  1 50000   74.4 male      16    45 white   
##  2 60000   65.5 female    16    58 white   
##  3 30000   63.6 female    16    29 white   
##  4 50000   63.1 female    16    91 other   
##  5 51000   63.4 female    17    39 white   
##  6  9000   64.4 female    15    26 white   
##  7 29000   61.7 female    12    49 white   
##  8 32000   72.7 male      17    46 white   
##  9  2000   72.0 male      15    21 hispanic
## 10 27000   72.2 male      12    26 white   
## # ... with 1,182 more rows
```

```r
heightsav <- tempfile()
download("http://www.ssc.wisc.edu/nsfh/wave3/NSFH3%20Apr%202005%20release/main05022005.sav", heightsav, mode = "wb")
heightsav <- read_sav(heightsav)
heightsav
```

```
## # A tibble: 7,277 x 2,317
##    CASE  TYPE  CASEID CASENUM     DOBM  DOBY    RT1A1    RT1A2    RT1A3    RT1B1
##    <chr> <chr> <chr>    <dbl> <dbl+lb> <dbl> <dbl+lb> <dbl+lb> <dbl+lb> <dbl+lb>
##  1 00008 S     00008S       8 10 [OCT~    15  5       NA       NA        3      
##  2 00058 R     00058R      58  2 [FEB~    40  3        0 [NON~  1        2      
##  3 00058 S     00058S      58  2 [FEB~    40  0 [NON~ NA       NA        0 [NON~
##  4 00079 S     00079S      79 11 [NOV~    12  7       NA       NA        0 [NON~
##  5 00082 S     00082S      82  7 [JUL~    61  4       NA        1        4      
##  6 00120 R     00120R     120 10 [OCT~    54 14        0 [NON~  0 [NON~  7      
##  7 00120 S     00120S     120 11 [NOV~    54  1       10        2        0 [NON~
##  8 00133 R     00133R     133 10 [OCT~    51 18        0 [NON~  3       18      
##  9 00146 R     00146R     146  4 [APR~    52  1        0 [NON~ NA        2      
## 10 00146 S     00146S     146  4 [APR~    51  0 [NON~ 20       NA        0 [NON~
## # ... with 7,267 more rows, and 2,307 more variables: RT1B2 <dbl+lbl>,
## #   RT1B3 <dbl+lbl>, RT1C1 <dbl+lbl>, RT1C2 <dbl+lbl>, RT1C3 <dbl+lbl>,
## #   RT1D1 <dbl+lbl>, RT1D2 <dbl+lbl>, RT1D3 <dbl+lbl>, RT1E1 <dbl+lbl>,
## #   RT1E2 <dbl+lbl>, RT1E3 <dbl+lbl>, RT1F1 <dbl+lbl>, RT1F2 <dbl+lbl>,
## #   RT1F3 <dbl+lbl>, RT1G1 <dbl+lbl>, RT1G2 <dbl+lbl>, RT1G3 <dbl+lbl>,
## #   RT1H1 <dbl+lbl>, RT1H2 <dbl+lbl>, RT1H3 <dbl+lbl>, RT1I1 <dbl+lbl>,
## #   RT1I2 <dbl+lbl>, RT1I3 <dbl+lbl>, RT204 <dbl+lbl>, RE1 <dbl+lbl>,
## #   RE3 <dbl>, RE4 <dbl>, RT205A <dbl+lbl>, RT205B <dbl+lbl>, RT205C <dbl+lbl>,
## #   RT205D <dbl+lbl>, RT205E <dbl+lbl>, RT205F <dbl+lbl>, RT205G <dbl>,
…
```r
householdsav <- tempfile()
download("http://www.ssc.wisc.edu/nsfh/wave3/NSFH3%20Apr%202005%20release/nsfh3mainroster1-04042005.sav", householdsav, mode = "wb")
householdsav <- read_sav(householdsav)
householdsav
```

```
## # A tibble: 7,277 x 308
##    case  type  CASEID casenum   sex_A    ms_A    sex_B age_B     ms_B    rel_B
##    <chr> <chr> <chr>    <dbl> <dbl+l> <dbl+l> <dbl+lb> <dbl> <dbl+lb> <dbl+lb>
##  1 00008 S     00008S       8 2 [Fem~ 4 [Wid~ NA          NA NA       NA      
##  2 00058 R     00058R      58 2 [Fem~ 1 [Mar~  2 [Fem~    14 NA       18 [OTH~
##  3 00058 S     00058S      58 1 [Mal~ 3 [Div~ NA          NA NA       NA      
##  4 00079 S     00079S      79 2 [Fem~ 4 [Wid~ NA          NA NA       NA      
##  5 00082 S     00082S      82 2 [Fem~ 3 [Div~  2 [Fem~    16 NA        3 [BIO~
##  6 00120 R     00120R     120 2 [Fem~ 1 [Mar~  2 [Fem~    24  5 [Nev~  3 [BIO~
##  7 00120 S     00120S     120 1 [Mal~ 1 [Mar~  2 [Fem~    47  1 [Mar~  1 [HUS~
##  8 00133 R     00133R     133 2 [Fem~ 1 [Mar~  1 [Mal~    49  1 [Mar~  1 [HUS~
##  9 00146 R     00146R     146 2 [Fem~ 1 [Mar~  1 [Mal~    50  1 [Mar~  1 [HUS~
## 10 00146 S     00146S     146 1 [Mal~ 1 [Mar~  2 [Fem~    50  1 [Mar~  1 [HUS~
## # ... with 7,267 more rows, and 298 more variables: mb1_B <dbl+lbl>,
## #   bio1_B <dbl+lbl>, edu1_B <dbl+lbl>, wrk1_B <dbl+lbl>, stu1_B <dbl+lbl>,
## #   typ1_B <dbl+lbl>, inc1_B <dbl+lbl>, chl1_B <dbl+lbl>, cor1_B <dbl+lbl>,
## #   RD2P_B <dbl+lbl>, RD3MP_B <dbl+lbl>, RD3YP_B <dbl+lbl>, RD4P_B <dbl+lbl>,
## #   RD5P_B <dbl+lbl>, RD6MP_B <dbl+lbl>, RD6YP_B <dbl+lbl>, RD7P_B <dbl+lbl>,
## #   RD9MP_B <dbl+lbl>, RD9YP_B <dbl+lbl>, RD10P_B <dbl+lbl>, RD11P_B <dbl+lbl>,
## #   RD12P_B <dbl+lbl>, RD13MP_B <dbl+lbl>, RD13YP_B <dbl+lbl>,
## #   RD14P_B <dbl+lbl>, sex_C <dbl+lbl>, age_C <dbl>, ms_C <dbl+lbl>,
## #   rel_C <dbl+lbl>, mb1_C <dbl+lbl>, bio1_C <dbl+lbl>, edu1_C <dbl+lbl>,
…
new_data <- bind_rows(clean_BLS_height,clean_German_height,clean_Prison_height,clean_SE_height,clean_wisc_height)   
new_data    
```

```
## # A tibble: 28,575 x 4
##    birth_year height.cm height.in study
##         <dbl>     <dbl>     <dbl> <chr>
##  1       1950      189.      74.4 BLS  
##  2       1950      166.      65.5 BLS  
##  3       1950      162.      63.6 BLS  
##  4       1950      160.      63.1 BLS  
##  5       1950      161.      63.4 BLS  
##  6       1950      164.      64.4 BLS  
##  7       1950      157.      61.7 BLS  
##  8       1950      185.      72.7 BLS  
##  9       1950      183.      72.0 BLS  
## 10       1950      183.      72.2 BLS  
## # ... with 28,565 more rows
```
…
